[
  {
    "id": 55,
    "name": "La internacional S.A.",
    "user": "internacionalsa",
    "password": "internacional123",
    "id_number": 1723524250001,
    "id_type": "RUC",
    "activity": "Fabrica de prendas de vestir",
    "taxpayer_type": "Persona Juridica",
    "address": "Av lulubamba",
    "phone": "098754321",
    "payment_account_1": "21001582585",
    "payment_account_2": "21001582585",
    "disbursement_account": "21001582585",
    "legal_representative": "Flores Flores Lorena",
    "charge_legal_representative": "Jefe Talento",
    "type": "company",
    "has_regional": true,
    "line": true,
    "emails1": [
      "email1@pichincha.com",
      "email2@pichincha.com",
      "email3@pichincha.com"
    ],
    "emails2": [
      "email4@pichincha.com",
      "email5@pichincha.com",
      "email6@pichincha.com"
    ],
    "status": "Activo",
    "regionals": [
      {
        "id": 44,
        "name": "la internacional",
        "product": "PROVEEDOR",
        "identification": "1785485985001",
        "address": "Av. lulubamba",
        "phone": "0987543211",
        "status": "Activo"
      },
      {
        "id": 76,
        "name": "cocacola",
        "product": "PROVEEDOR",
        "identification": "1785485985001",
        "address": "Av. lulubamba",
        "phone": "0987543211",
        "status": "Activo"
      },
      {
        "id": 54,
        "name": "green co",
        "product": "PROVEEDOR",
        "identification": "1785485985001",
        "address": "Av. lulubamba",
        "phone": "0987543211",
        "status": "Inactivo"
      }
    ],
    "products": [
      {
        "id": 57,
        "name": "DISTRIBUIDOR",
        "description": "Demo",
        "currency": "USD",
        "capital_term": 60,
        "status": "ACTIVO",
        "confirmation_deadline": 5,
        "interest": 0,
        "term_type": "diario",
        "code": "",
        "expiration_criteria": "desplaza feriados",
        "payment_period": "Al vencimiento",
        "business_GAF_code": "",
        "product_GAF_code": "",
        "effective_term": 10,
        "operation_term": 60,
        "debits_by_regional": true,
        "commission_charge": false,
        "insurance_charge": true,
        "with_recourse": false,
        "needs_credit": true
      },
      {
        "id": 66,
        "name": "PROVEEDOR",
        "description": "PAgo proveedores",
        "currency": "USD",
        "capital_term": 60,
        "status": "ACTIVO",
        "confirmation_deadline": 5,
        "interest": 0,
        "term_type": "",
        "code": "",
        "expiration_criteria": "",
        "payment_period": "",
        "business_GAF_code": "",
        "product_GAF_code": "",
        "effective_term": 60,
        "operation_term": 10,
        "debits_by_regional": true,
        "commission_charge": false,
        "insurance_charge": true,
        "with_recourse": false,
        "needs_credit": true
      },
      {
        "id": 99,
        "name": "PROVEEDOR",
        "description": "As",
        "currency": "USD",
        "capital_term": 60,
        "status": "DESACTIVO",
        "confirmation_deadline": 5,
        "interest": 0,
        "term_type": "",
        "code": "",
        "expiration_criteria": "",
        "payment_period": "",
        "business_GAF_code": "",
        "product_GAF_code": "",
        "effective_term": 60,
        "operation_term": 10,
        "debits_by_regional": true,
        "commission_charge": false,
        "insurance_charge": true,
        "with_recourse": false,
        "needs_credit": true
      }
    ]
  },
  {
    "id": 56,
    "name": "Coca Cola Company",
    "user": "cocacola",
    "password": "cocacola123",
    "id_number": 1733524250001,
    "id_type": "RUC",
    "activity": "Fabrica de prendas de vestir",
    "taxpayer_type": "Persona Juridica",
    "address": "Av lulubamba",
    "phone": "098754321",
    "payment_account_1": "21001582585",
    "payment_account_2": "21001582585",
    "disbursement_account": "21001582585",
    "legal_representative": "Flores Flores Lorena",
    "charge_legal_representative": "Jefe Talento",
    "type": "provider",
    "has_regional": true,
    "line": true,
    "emails1": [
      "email1@pichincha.com",
      "email2@pichincha.com",
      "email3@pichincha.com"
    ],
    "emails2": [
      "email4@pichincha.com",
      "email5@pichincha.com",
      "email6@pichincha.com"
    ],
    "status": "activo",
    "regionals": [
      {
        "id": 44,
        "name": "proveedor",
        "product": "proveedor",
        "identification": "1785485985001",
        "address": "Av. lulubamba",
        "phone": "0987543211",
        "status": "activo"
      },
      {
        "id": 76,
        "name": "proveedor",
        "product": "proveedor",
        "identification": "1785485985001",
        "address": "Av. lulubamba",
        "phone": "0987543211",
        "status": "activo"
      },
      {
        "id": 54,
        "name": "proveedor",
        "product": "proveedor",
        "identification": "1785485985001",
        "address": "Av. lulubamba",
        "phone": "0987543211",
        "status": "activo"
      }
    ],
    "products": [
      {
        "id": 57,
        "name": "DISTRIBUIDOR",
        "description": "Demo",
        "currency": "USD",
        "capital_term": 60,
        "status": "ACTIVO",
        "confirmation_deadline": 5,
        "interest": 0,
        "term_type": "",
        "code": "",
        "expiration_criteria": "",
        "payment_period": "",
        "business_GAF_code": "",
        "product_GAF_code": "",
        "effective_term": 60,
        "operation_term": 10,
        "debits_by_regional": true,
        "commission_charge": false,
        "insurance_charge": true,
        "with_recourse": false,
        "needs_credit": true
      },
      {
        "id": 66,
        "name": "PROVEEDOR",
        "description": "PAgo proveedores",
        "currency": "USD",
        "capital_term": 60,
        "status": "ACTIVO",
        "confirmation_deadline": 5,
        "interest": 0,
        "term_type": "",
        "code": "",
        "expiration_criteria": "",
        "payment_period": "",
        "business_GAF_code": "",
        "product_GAF_code": "",
        "effective_term": 60,
        "operation_term": 10,
        "debits_by_regional": true,
        "commission_charge": false,
        "insurance_charge": true,
        "with_recourse": false,
        "needs_credit": true
      },
      {
        "id": 99,
        "name": "PROVEEDOR",
        "description": "As",
        "currency": "USD",
        "capital_term": 60,
        "status": "DESACTIVO",
        "confirmation_deadline": 5,
        "interest": 0,
        "term_type": "",
        "code": "",
        "expiration_criteria": "",
        "payment_period": "",
        "business_GAF_code": "",
        "product_GAF_code": "",
        "effective_term": 60,
        "operation_term": 10,
        "debits_by_regional": true,
        "commission_charge": false,
        "insurance_charge": true,
        "with_recourse": false,
        "needs_credit": true
      }
    ]
  },
  {
    "id": 57,
    "name": "Motransa",
    "user": "motransa",
    "password": "motransa123",
    "id_number": 1789524250001,
    "id_type": "RUC",
    "activity": "Fabrica de prendas de vestir",
    "taxpayer_type": "Persona Juridica",
    "address": "Av lulubamba",
    "phone": "098754321",
    "payment_account_1": "21001582585",
    "payment_account_2": "21001582585",
    "disbursement_account": "21001582585",
    "legal_representative": "Flores Flores Lorena",
    "charge_legal_representative": "Jefe Talento",
    "has_regional": true,
    "type": "company",
    "line": true,
    "emails1": [
      "email1@pichincha.com",
      "email2@pichincha.com",
      "email3@pichincha.com"
    ],
    "emails2": [
      "email4@pichincha.com",
      "email5@pichincha.com",
      "email6@pichincha.com"
    ],
    "status": "activo",
    "regionals": [
      {
        "id": 44,
        "name": "proveedor",
        "product": "proveedor",
        "identification": "1785485985001",
        "address": "Av. lulubamba",
        "phone": "0987543211",
        "status": "activo"
      },
      {
        "id": 76,
        "name": "proveedor",
        "product": "proveedor",
        "identification": "1785485985001",
        "address": "Av. lulubamba",
        "phone": "0987543211",
        "status": "activo"
      },
      {
        "id": 54,
        "name": "proveedor",
        "product": "proveedor",
        "identification": "1785485985001",
        "address": "Av. lulubamba",
        "phone": "0987543211",
        "status": "activo"
      }
    ],
    "products": [
      {
        "id": 57,
        "name": "DISTRIBUIDOR",
        "description": "Demo",
        "currency": "USD",
        "capital_term": 60,
        "status": "ACTIVO",
        "confirmation_deadline": 5,
        "interest": 0,
        "term_type": "",
        "code": "",
        "expiration_criteria": "",
        "payment_period": "",
        "business_GAF_code": "",
        "product_GAF_code": "",
        "effective_term": 60,
        "operation_term": 10,
        "debits_by_regional": true,
        "commission_charge": false,
        "insurance_charge": true,
        "with_recourse": false,
        "needs_credit": true
      },
      {
        "id": 66,
        "name": "PROVEEDOR",
        "description": "PAgo proveedores",
        "currency": "USD",
        "capital_term": 60,
        "status": "ACTIVO",
        "confirmation_deadline": 5,
        "interest": 0,
        "term_type": "",
        "code": "",
        "expiration_criteria": "",
        "payment_period": "",
        "business_GAF_code": "",
        "product_GAF_code": "",
        "effective_term": 60,
        "operation_term": 10,
        "debits_by_regional": true,
        "commission_charge": false,
        "insurance_charge": true,
        "with_recourse": false,
        "needs_credit": true
      },
      {
        "id": 99,
        "name": "PROVEEDOR",
        "description": "As",
        "currency": "USD",
        "capital_term": 60,
        "status": "DESACTIVO",
        "confirmation_deadline": 5,
        "interest": 0,
        "term_type": "",
        "code": "",
        "expiration_criteria": "",
        "payment_period": "",
        "business_GAF_code": "",
        "product_GAF_code": "",
        "effective_term": 60,
        "operation_term": 10,
        "debits_by_regional": true,
        "commission_charge": false,
        "insurance_charge": true,
        "with_recourse": false,
        "needs_credit": true
      }
    ]
  }
]
