[
  {
    "id": 55,
    "name": "La internacional S.A.",
    "id_number": 1723524250001,
    "status": "ACTIVO",
    "credit_lines": [
      {
        "id": 442,
        "approved_quota": 38595.20,
        "available_quota": 105955.22,
        "approval_date": "28 / 11 / 2018",
        "expiration_date": "20 / 11 / 2019"
      },
      {
        "id": 510,
        "approved_quota": 28697.20,
        "available_quota": 405955.22,
        "approval_date": "28 / 12 / 2018",
        "expiration_date": "16 / 11 / 2019"
      },
      {
        "id": 325,
        "approved_quota": 4859520,
        "available_quota": 205955.22,
        "approval_date": "22 / 11 / 2018",
        "expiration_date": "11 / 11 / 2019"
      }
    ],
    "facilities": [
      {
        "id": 442,
        "name": "CREDITO DIRECTO CORTO PLAZO",
        "approved_long_term": 150000.60,
        "available_long_term": 63890.40,
        "blocked_short_term": 60000.00,
        "used_short_term": 20000.90,
        "approved_short_term": 40000.00,
        "available_short_term": 30000.00,
        "expiration_date": "08 / 11 / 2019"
      },
      {
        "id": 442,
        "name": "CREDITO DIRECTO CORTO PLAZO",
        "approved_long_term": 150000.00,
        "available_long_term": 63890.00,
        "blocked_short_term": 70000.00,
        "used_short_term": 20000.00,
        "approved_short_term": 40000.00,
        "available_short_term": 30000.00,
        "expiration_date": "08 / 11 / 2019"
      },
      {
        "id": 442,
        "name": "CREDITO DIRECTO CORTO PLAZO",
        "approved_long_term": 150000.00,
        "available_long_term": 63890.00,
        "blocked_short_term": 90000.00,
        "used_short_term": 20000.00,
        "approved_short_term": 40000.00,
        "available_short_term": 30000.00,
        "expiration_date": "08 / 11 / 2019"
      },
      {
        "id": 442,
        "name": "CREDITO DIRECTO CORTO PLAZO",
        "approved_long_term": 150000.00,
        "available_long_term": 63890.00,
        "blocked_short_term": 90000.00,
        "used_short_term": 20000.00,
        "approved_short_term": 40000.00,
        "available_short_term": 30000.00,
        "expiration_date": "08 / 11 / 2019"
      }
    ]
  },
  {
    "id": 33,
    "name": "Coca Cola Company",
    "id_number": 1723576250001,
    "status": "ACTIVO",
    "credit_lines": [
      {
        "id": 442,
        "approved_quota": 3859520.54,
        "available_quota": 105955.22,
        "approval_date": "28 / 11 / 2018",
        "expiration_date": "20 / 11 / 2019"
      },
      {
        "id": 510,
        "approved_quota": 2869720.89,
        "available_quota": 405955.22,
        "approval_date": "28 / 12 / 2018",
        "expiration_date": "16 / 11 / 2019"
      },
      {
        "id": 325,
        "approved_quota": 4859520,
        "available_quota": 205955.22,
        "approval_date": "22 / 11 / 2018",
        "expiration_date": "11 / 11 / 2019"
      }
    ],
    "facilities": [
      {
        "id": 442,
        "name": "CREDITO DIRECTO CORTO PLAZO",
        "approved_long_term": 150000.00,
        "available_long_term": 63890.00,
        "blocked_short_term": 70000.00,
        "used_short_term": 20000.00,
        "approved_short_term": 40000.00,
        "available_short_term": 30000.00,
        "expiration_date": "08 / 11 / 2019"
      },
      {
        "id": 442,
        "name": "CREDITO DIRECTO CORTO PLAZO",
        "approved_long_term": 150000.00,
        "available_long_term": 63890.00,
        "blocked_short_term": 80000.00,
        "used_short_term": 20000.00,
        "approved_short_term": 40000.00,
        "available_short_term": 30000.00,
        "expiration_date": "08 / 11 / 2019"
      },
      {
        "id": 442,
        "name": "CREDITO DIRECTO CORTO PLAZO",
        "approved_long_term": 150000.00,
        "available_long_term": 63890.00,
        "blocked_short_term": 90000.00,
        "used_short_term": 20000.00,
        "approved_short_term": 40000.00,
        "available_short_term": 30000.00,
        "expiration_date": "08 / 11 / 2019"
      },
      {
        "id": 442,
        "name": "CREDITO DIRECTO CORTO PLAZO",
        "approved_long_term": 150000.00,
        "available_long_term": 63890.00,
        "blocked_short_term": 80000.00,
        "used_short_term": 20000.00,
        "approved_short_term": 40000.00,
        "available_short_term": 30000.00,
        "expiration_date": "08 / 11 / 2019"
      }
    ]
  },
  {
    "id": 55,
    "name": "Motransa",
    "id_number": 1723444250001,
    "status": "ACTIVO",
    "credit_lines": [
      {
        "id": 442,
        "approved_quota": 3859520,
        "available_quota": 105955.22,
        "approval_date": "28 / 11 / 2018",
        "expiration_date": "20 / 11 / 2019"
      },
      {
        "id": 510,
        "approved_quota": 2869720,
        "available_quota": 405955.22,
        "approval_date": "28 / 12 / 2018",
        "expiration_date": "16 / 11 / 2019"
      },
      {
        "id": 325,
        "approved_quota": 4859520,
        "available_quota": 205955.22,
        "approval_date": "22 / 11 / 2018",
        "expiration_date": "11 / 11 / 2019"
      }
    ],
    "facilities": [
      {
        "id": 442,
        "name": "CREDITO DIRECTO CORTO PLAZO",
        "approved_long_term": 150000.00,
        "available_long_term": 63890.00,
        "blocked_short_term": 90000.00,
        "used_short_term": 20000.00,
        "approved_short_term": 40000.00,
        "available_short_term": 30000.00,
        "expiration_date": "16 / 11 / 2019"
      },
      {
        "id": 442,
        "name": "CREDITO DIRECTO CORTO PLAZO",
        "approved_long_term": 150000.00,
        "available_long_term": 63890.00,
        "blocked_short_term": 90000.00,
        "used_short_term": 20000.00,
        "approved_short_term": 40000.00,
        "available_short_term": 30000.00,
        "expiration_date": "08 / 11 / 2019"
      },
      {
        "id": 442,
        "name": "CREDITO DIRECTO CORTO PLAZO",
        "approved_long_term": 150000.00,
        "available_long_term": 63890.00,
        "blocked_short_term": 40000.00,
        "used_short_term": 20000.00,
        "approved_short_term": 40000.00,
        "available_short_term": 30000.00,
        "expiration_date": "08 / 11 / 2019"
      },
      {
        "id": 442,
        "name": "CREDITO DIRECTO CORTO PLAZO",
        "approved_long_term": 150000.00,
        "available_long_term": 63890.00,
        "blocked_short_term": 90000.00,
        "used_short_term": 20000.00,
        "approved_short_term": 40000.00,
        "available_short_term": 30000.00,
        "expiration_date": "08 / 11 / 2019"
      }
    ]
  }
]
