[{
  "id": 1,
  "name": "Terrafertil",
  "type": "legal",
  "idNumber": 1799999999999,
  "activity": "Productos alimenticios",
  "address": "Av. de Prueba y prueba SN",
  "phone": "022987654",
  "emails": ["test1@domain.com", "test2@domain.com"],
  "paymentAccounts": [
    {"type":"Corriente", "account": 2100008535 },
    {"type":"Corriente", "account": 2100012336 },
    {"type":"Ahorros", "account": 2100012336 }
  ],
  "currentPaymentAccount": {"type": "Corriente", "account": 2100008535 },
  "legalRepresentative": {
    "id": 1799999999999,
    "name": "Ana María Carvajal Carvajal",
    "position": "Gerente General",
    "civilStatus": "Soltero"
  },
  "idAnchoredCompany": null,
  "interest": 9.07,
  "status": "Activo"
}, {
  "id": 2,
  "name": "Juan José Pérez Pérez",
  "type": "natural",
  "idNumber": 1712345678,
  "activity": "Producción industrial",
  "nationality": "Ecuatoriana",
  "address": "Av. de Prueba y prueba SN",
  "phone": "022987654",
  "mobilePhone": "0987654312",
  "emails": ["user1@domain.com", "user2@domain.com"],
  "paymentAccounts": [
    {"type":"Corriente", "account": 2100103235 },
    {"type":"Corriente", "account": 2100012336 },
    {"type":"Ahorros", "account": 2100011336 }
  ],
  "currentPaymentAccount": {"type":"Ahorros", "account": 2100011336 },
  "civilStatus": "Casado",
  "spouse": {
    "idNumber": 1712534678,
    "name": "Ana María Cárdenas Montero"
  },
  "idAnchoredCompany": null,
  "interest": 10.22,
  "status": "Activo"
}, {
  "anchorCompanies": [{
    "id": 1,
    "idNumber": 1712345678901,
    "name": "Empresa X",
    "regionalName": "Nombre de regional",
    "interest": 10.22,
    "resource": false,
    "status": "Activo",
    "anchored": false,
    "email": "abc@empresax.com",
    "currentPaymentAccount" : {"type":"Ahorros", "account": 2100011336 }
  }, {
    "id": 2,
    "idNumber": 1700000000,
    "name": "Empresa Y",
    "regionalName": "Nombre de regional 2",
    "interest": 9.07,
    "resource": true,
    "status": "Activo",
    "anchored": false,
    "email": "abc@empresay.com",
    "currentPaymentAccount" : {"type":"Ahorros", "account": 2100011336 }
  }, {
    "id": 3,
    "idNumber": 1709876543212,
    "name": "Empresa Z",
    "regionalName": "Nombre de regional 3",
    "interest": 8.75,
    "resource": false,
    "status": "Activo",
    "anchored": false,
    "email": "abc@empresaz.com",
    "currentPaymentAccount" : {"type":"Ahorros", "account": 2100011336 }
  }]
}]
